classify-client.services.mozilla.com:HSTS	0	19243	1694179426348,1,0
xerolinux.xyz^partitionKey=%28http%2Cxerolinux.xyz%29:HSTS	0	19243	1678195731428,1,1
firefox.settings.services.mozilla.com:HSTS	0	19243	1694179689469,1,0
services.addons.mozilla.org:HSTS	0	19243	1694179468145,1,0
i.imgur.com^partitionKey=%28http%2Cimgur.com%29:HSTS	0	19243	1662644030075,1,0
contile.services.mozilla.com:HSTS	0	19243	1694179729031,1,0
addons.mozilla.org:HSTS	0	19243	1694179468509,1,1
location.services.mozilla.com:HSTS	0	19243	1694179423465,1,1
shavar.services.mozilla.com^firstPartyDomain=safebrowsing.86868755-6b82-4842-b301-72671a0db32e.mozilla:HSTS	0	19243	1694179425165,1,1
www.mozilla.org^partitionKey=%28http%2Cmozilla.org%29:HSTS	0	19243	1678368223467,1,1
normandy.cdn.mozilla.net:HSTS	0	19243	1694179425993,1,0
aus5.mozilla.org:HSTS	0	19243	1694179633248,1,0
